<svg id="Groupe_1665" data-name="Groupe 1665" xmlns="http://www.w3.org/2000/svg" width="12.893" height="25.233" viewBox="0 0 12.893 25.233">
  <path id="Tracé_1822" data-name="Tracé 1822" d="M8.251,4.214c1.326-1.37,4.544-2.5,4.544-2.5s.9-.444,1.409.706a9.321,9.321,0,0,1,1.05,3.918c-.164.653.052,1.2-2,2.159-1.964,1-2.253.943-2.281,2.1a50.311,50.311,0,0,0,2.438,9.1c.6.99.822.8,3.027.68s2.373.515,2.761.953a9.325,9.325,0,0,1,1.05,3.918c.178,1.171-.74,1.282-.74,1.282s-3.4.707-5.267.057C10.257,25.35,5.368,7.358,8.251,4.214Z" transform="translate(-7.383 -1.626)" fill="#6a6a6a" fill-rule="evenodd"/>
</svg>
