<svg xmlns="http://www.w3.org/2000/svg" width="17.795" height="17.795" viewBox="0 0 17.795 17.795">
  <path id="Tracé_2868" data-name="Tracé 2868" d="M98.17,82.451H84.527a2.076,2.076,0,0,0-2.076,2.076V98.17a2.076,2.076,0,0,0,2.076,2.076H98.17a2.076,2.076,0,0,0,2.076-2.076V84.527a2.076,2.076,0,0,0-2.076-2.076ZM86.317,97.01a1.258,1.258,0,1,1,1.258-1.258,1.258,1.258,0,0,1-1.258,1.258Zm0-4.4a1.258,1.258,0,1,1,1.258-1.258,1.258,1.258,0,0,1-1.258,1.258Zm0-4.4a1.258,1.258,0,1,1,1.258-1.258A1.258,1.258,0,0,1,86.317,88.2Zm10.693,8.177H90.091a.629.629,0,1,1,0-1.258h6.919a.629.629,0,1,1,0,1.258Zm0-4.4H90.091a.629.629,0,1,1,0-1.258h6.919a.629.629,0,1,1,0,1.258Zm0-4.4H90.091a.629.629,0,1,1,0-1.258h6.919a.629.629,0,1,1,0,1.258Z" transform="translate(-82.451 -82.451)" fill="#5a2b5e"/>
</svg>
