<svg xmlns="http://www.w3.org/2000/svg" width="14.448" height="14.448" viewBox="0 0 14.448 14.448">
  <g id="Icon_material-sms" data-name="Icon material-sms" transform="translate(-2 -2)" fill="none" stroke-linecap="round" stroke-linejoin="round">
    <path d="M14.2,3H4.245A1.243,1.243,0,0,0,3.006,4.245L3,15.448l2.49-2.49H14.2a1.248,1.248,0,0,0,1.245-1.245V4.245A1.248,1.248,0,0,0,14.2,3ZM7.357,8.6H6.112V7.357H7.357Zm2.49,0H8.6V7.357H9.846Zm2.49,0H11.091V7.357h1.245Z" stroke="none"/>
    <path d="M 4.244775772094727 2.999996185302734 C 3.560146331787109 2.999996185302734 3.0062255859375 3.560146331787109 3.0062255859375 4.244775772094727 L 2.999996185302734 15.44775581359863 L 5.489556312561035 12.95820617675781 L 14.20297622680664 12.95820617675781 C 14.88760566711426 12.95820617675781 15.44775581359863 12.39805603027344 15.44775581359863 11.71342658996582 L 15.44775581359863 4.244775772094727 C 15.44775581359863 3.560146331787109 14.88760566711426 2.999996185302734 14.20297622680664 2.999996185302734 L 4.244775772094727 2.999996185302734 M 7.356716156005859 8.601486206054688 L 6.111935615539551 8.601486206054688 L 6.111935615539551 7.356716156005859 L 7.356716156005859 7.356716156005859 L 7.356716156005859 8.601486206054688 M 9.84626579284668 8.601486206054688 L 8.601486206054688 8.601486206054688 L 8.601486206054688 7.356716156005859 L 9.84626579284668 7.356716156005859 L 9.84626579284668 8.601486206054688 M 12.3358154296875 8.601486206054688 L 11.09103584289551 8.601486206054688 L 11.09103584289551 7.356716156005859 L 12.3358154296875 7.356716156005859 L 12.3358154296875 8.601486206054688 M 4.244775772094727 1.999996185302734 L 14.20297622680664 1.999996185302734 C 15.44075584411621 1.999996185302734 16.44775581359863 3.006996154785156 16.44775581359863 4.244775772094727 L 16.44775581359863 11.71342658996582 C 16.44775581359863 12.95120620727539 15.44075584411621 13.95820617675781 14.20297622680664 13.95820617675781 L 5.903775215148926 13.95820617675781 L 3.70710563659668 16.15486526489258 C 3.421036720275879 16.44093704223633 2.990777015686035 16.52645683288574 2.617055892944336 16.37152671813965 C 2.243326187133789 16.21660614013672 1.999776840209961 15.85176658630371 1.999996185302734 15.4471960067749 L 2.0062255859375 4.244215965270996 C 2.0062255859375 3.006996154785156 3.010436058044434 1.999996185302734 4.244775772094727 1.999996185302734 Z" stroke="none" fill="#d19f2a"/>
  </g>
</svg>
