<svg xmlns="http://www.w3.org/2000/svg" width="17.28" height="23.175" viewBox="0 0 17.28 23.175">
  <defs>
    <clipPath id="clip-path">
      <rect width="17.28" height="23.175" fill="none"/>
    </clipPath>
  </defs>
  <g id="Notif_Picto" clip-path="url(#clip-path)">
    <g id="Groupe_1407" data-name="Groupe 1407" transform="translate(0.25 0.795)">
      <path id="Tracé_1135" data-name="Tracé 1135" d="M12.628-1049.889v.809a6.864,6.864,0,0,0-6.1,6.819v5.789l-1.3,1.3a.763.763,0,0,0-.221.542v3.051a.763.763,0,0,0,.763.763h3.89a3.814,3.814,0,0,0,4.5,2.979,3.814,3.814,0,0,0,2.978-2.979h3.89a.763.763,0,0,0,.763-.763v-3.051a.763.763,0,0,0-.221-.542l-1.3-1.3v-5.789a6.864,6.864,0,0,0-6.1-6.819v-.809M13.39-1029.3a2.288,2.288,0,0,1-2.151-1.526h4.3A2.288,2.288,0,0,1,13.39-1029.3Zm2.288-7.627H8.051v-5.339a5.339,5.339,0,0,1,5.339-5.339,5.339,5.339,0,0,1,5.339,5.339v6.1a.763.763,0,0,0,.221.542l1.3,1.3v1.975H6.526v-1.975L7.6-1035.4h8.077" transform="translate(-5 1049.889)" fill="#fff" stroke="#fff" stroke-width="0.5"/>
    </g>
    <path id="Tracé_1136" data-name="Tracé 1136" d="M323.244-1074.913h-3.913l1.158-1.6h1.6Z" transform="translate(-312.648 1076.761)" fill="#fff" stroke="#fff" stroke-width="0.5"/>
  </g>
</svg>
