<svg xmlns="http://www.w3.org/2000/svg" width="23.981" height="23.981" viewBox="0 0 23.981 23.981">
  <g id="bt_reglages" transform="translate(-6.303 30.5) rotate(-90)">
    <g id="Groupe_1808" data-name="Groupe 1808" transform="translate(6.519 30.285) rotate(-90)">
      <path id="Tracé_1767" data-name="Tracé 1767" d="M22.891,2.156h-11.1a3.27,3.27,0,0,0-6.148,0H1.09a1.09,1.09,0,0,0,0,2.18H5.647a3.27,3.27,0,0,0,6.148,0h11.1a1.09,1.09,0,0,0,0-2.18ZM8.72,4.336a1.09,1.09,0,1,1,1.09-1.09A1.09,1.09,0,0,1,8.72,4.336Z" fill="#d29e0e"/>
      <path id="Tracé_1768" data-name="Tracé 1768" d="M22.891,2.156H21.6a3.27,3.27,0,0,0-6.148,0H1.09a1.09,1.09,0,1,0,0,2.18H15.457a3.27,3.27,0,0,0,6.148,0h1.286a1.09,1.09,0,0,0,0-2.18Zm-4.36,2.18a1.09,1.09,0,1,1,1.09-1.09A1.09,1.09,0,0,1,18.531,4.336Z" transform="translate(0 8.745)" fill="#d29e0e"/>
      <path id="Tracé_1769" data-name="Tracé 1769" d="M22.891,2.156H15.065a3.27,3.27,0,0,0-6.148,0H1.09a1.09,1.09,0,0,0,0,2.18H8.917a3.27,3.27,0,0,0,6.148,0h7.827a1.09,1.09,0,0,0,0-2.18Zm-10.9,2.18a1.09,1.09,0,1,1,1.09-1.09A1.09,1.09,0,0,1,11.991,4.336Z" transform="translate(0 17.49)" fill="#d29e0e"/>
    </g>
  </g>
</svg>
