<svg xmlns="http://www.w3.org/2000/svg" width="13.702" height="16.192" viewBox="0 0 13.702 16.192">
  <g id="Groupe_2018" data-name="Groupe 2018" transform="translate(0.813 -2.542)">
    <g id="Groupe_2016" data-name="Groupe 2016" transform="translate(-0.813 2.542)">
      <path id="Tracé_2720" data-name="Tracé 2720" d="M12.889,18.734H.971A1.786,1.786,0,0,1-.813,16.95V4.326A1.786,1.786,0,0,1,.971,2.542h8.18V6.279h3.737ZM.971,3.788a.539.539,0,0,0-.539.539V16.95a.539.539,0,0,0,.539.539H11.644V7.524H7.906V3.788Z" transform="translate(0.813 -2.542)" fill="#6a6a6a"/>
      <path id="Tracé_2721" data-name="Tracé 2721" d="M16.188,2.542V5.655H19.3Z" transform="translate(-5.6 -2.542)" fill="#6a6a6a"/>
    </g>
    <g id="Groupe_2017" data-name="Groupe 2017" transform="translate(1.414 8.746)">
      <path id="Tracé_2722" data-name="Tracé 2722" d="M3.682,15.18v1.666h-.92V12.5H4.028a2.171,2.171,0,0,1,1.31.322,1.286,1.286,0,0,1,.214,1.66,1.4,1.4,0,0,1-.6.468q.981,1.464,1.277,1.892H5.21L4.173,15.18Zm0-.749h.3a1.14,1.14,0,0,0,.645-.146.519.519,0,0,0,.208-.457.476.476,0,0,0-.212-.44,1.286,1.286,0,0,0-.658-.131h-.28Z" transform="translate(-2.762 -12.504)" fill="#6a6a6a"/>
      <path id="Tracé_2723" data-name="Tracé 2723" d="M9.209,16.846V12.5h.92v4.342Z" transform="translate(-5.194 -12.504)" fill="#6a6a6a"/>
      <path id="Tracé_2724" data-name="Tracé 2724" d="M12.443,12.5h1.351a2.6,2.6,0,0,1,1.341.263.914.914,0,0,1,.417.836,1.053,1.053,0,0,1-.182.639.731.731,0,0,1-.486.3v.03a.954.954,0,0,1,.6.344,1.124,1.124,0,0,1,.183.671,1.105,1.105,0,0,1-.43.926,1.851,1.851,0,0,1-1.165.333H12.443Zm.92,1.72H13.9a.975.975,0,0,0,.542-.116.432.432,0,0,0,.168-.383.384.384,0,0,0-.182-.358,1.176,1.176,0,0,0-.578-.108h-.484Zm0,.731v1.132h.6a.888.888,0,0,0,.561-.146.537.537,0,0,0,.181-.445q0-.541-.772-.541Z" transform="translate(-6.414 -12.504)" fill="#6a6a6a"/>
    </g>
  </g>
</svg>
