<svg xmlns="http://www.w3.org/2000/svg" width="20" height="20" viewBox="0 0 20 20">
  <g id="Agences" transform="translate(-30 -626)">
    <rect id="Rectangle_1401" data-name="Rectangle 1401" width="20" height="20" transform="translate(30 626)" fill="#fff"/>
    <g id="R_agence" transform="translate(34.102 627.942)">
      <g id="R_agence-2" data-name="R_agence">
        <g id="Groupe_1662" data-name="Groupe 1662">
          <path id="Tracé_1817" data-name="Tracé 1817" d="M5.847,0a5.888,5.888,0,0,1,5.887,5.847c0,3.444-3.8,6.568-5.887,9.211C3.8,12.415,0,9.291,0,5.847A5.88,5.88,0,0,1,5.847,0Z" fill="none" stroke="#5a2b5e" stroke-width="1.15" fill-rule="evenodd"/>
        </g>
      </g>
      <circle id="Ellipse_308" data-name="Ellipse 308" cx="3.468" cy="3.468" r="3.468" transform="translate(2.194 2.342)" fill="#d50e58"/>
    </g>
  </g>
</svg>
