<svg xmlns="http://www.w3.org/2000/svg" width="23.81" height="16.377" viewBox="0 0 23.81 16.377">
  <g id="noun_credit_cards_2372004" data-name="noun_credit cards_2372004" transform="translate(0 0)">
    <g id="Groupe_2126" data-name="Groupe 2126" transform="translate(0 0)">
      <path id="Tracé_2866" data-name="Tracé 2866" d="M1.451,0H22.359A1.455,1.455,0,0,1,23.81,1.451V14.926a1.455,1.455,0,0,1-1.451,1.451H1.451A1.455,1.455,0,0,1,0,14.926V1.451A1.455,1.455,0,0,1,1.451,0ZM17.877,10.459a1.843,1.843,0,0,1,1.02.306,1.853,1.853,0,1,1,0,3.094,1.853,1.853,0,1,1-1.02-3.4ZM2.488,9.7H9.01v1.569H2.488Zm0,2.873H12.6v1.569H2.488Z" transform="translate(0 0)" fill="#5a2b5e" fill-rule="evenodd"/>
    </g>
  </g>
</svg>
