<svg xmlns="http://www.w3.org/2000/svg" width="24.666" height="20.555" viewBox="0 0 24.666 20.555">
  <path id="Tracé_2865" data-name="Tracé 2865" d="M25.618,15v4.4H17.4v4.7h8.222v4.4l7.047-6.754ZM15.047,22.047,8,28.8l7.047,6.754v-4.4h8.222v-4.7H15.047Z" transform="translate(-8 -15)" fill="#5a2b5e"/>
</svg>
