<svg xmlns="http://www.w3.org/2000/svg" width="20" height="20" viewBox="0 0 20 20">
  <g id="Comptes" transform="translate(-30 -233)">
    <rect id="Rectangle_1392" data-name="Rectangle 1392" width="20" height="20" transform="translate(30 233)" fill="#fff"/>
    <g id="Groupe_2150" data-name="Groupe 2150" transform="translate(-32.844 213.94)">
      <path id="Tracé_2908" data-name="Tracé 2908" d="M79.565,26.131H78.01V25.7a4.054,4.054,0,0,0-4.048-4.049H71.723A4.054,4.054,0,0,0,67.674,25.7v.435H66.121a1.247,1.247,0,0,0-1.245,1.244v7.847a1.247,1.247,0,0,0,1.245,1.246H79.565a1.248,1.248,0,0,0,1.247-1.246V27.377A1.247,1.247,0,0,0,79.565,26.131ZM69.05,25.7a2.68,2.68,0,0,1,2.676-2.677h2.241A2.681,2.681,0,0,1,76.643,25.7v.435H69.05Zm10.39,9.4-13.191,0V27.5H79.44Z" fill="#5a2b5e"/>
      <path id="Tracé_2909" data-name="Tracé 2909" d="M67.2,30.875h0l.672.427-.682.432a.558.558,0,0,0-.2.367.559.559,0,0,0,.82.561l.551-.346v.663a.561.561,0,1,0,1.121,0v-.667l.559.354a.561.561,0,1,0,.6-.948L69.97,31.3l.674-.426a.562.562,0,0,0,.188-.745l-.021-.038a.559.559,0,0,0-.767-.162l-.557.348v-.66a.56.56,0,0,0-1.12,0v.666l-.565-.354a.543.543,0,0,0-.422-.073.56.56,0,0,0-.351.247.562.562,0,0,0,.173.773Z" fill="#d50e58"/>
      <path id="Tracé_2910" data-name="Tracé 2910" d="M72.283,31.857h1.681a.56.56,0,0,0,0-1.12H72.283a.56.56,0,0,0,0,1.12Z" fill="#d50e58"/>
      <path id="Tracé_2911" data-name="Tracé 2911" d="M76.2,31.857h1.681a.56.56,0,0,0,0-1.12H76.2a.56.56,0,1,0,0,1.12Z" fill="#d50e58"/>
    </g>
  </g>
</svg>
