<svg xmlns="http://www.w3.org/2000/svg" width="20" height="20" viewBox="0 0 20 20">
  <g id="Crédits" transform="translate(-30 -335)">
    <rect id="Rectangle_1395" data-name="Rectangle 1395" width="20" height="20" transform="translate(30 335)" fill="#fff"/>
    <g id="Crédits-2" data-name="Crédits" transform="translate(32 336.948)">
      <path id="Tracé_1759" data-name="Tracé 1759" d="M31.879,39.018A7.093,7.093,0,0,1,27.486,37.5a1.2,1.2,0,0,1-.1-1.787l8.329-8.329a1.2,1.2,0,0,1,.922-.35,1.191,1.191,0,0,1,.865.452,7.134,7.134,0,0,1-5.621,11.532Zm4.684-11.035a.248.248,0,0,0-.178.073l-8.329,8.329a.249.249,0,0,0-.073.193.238.238,0,0,0,.09.174,6.182,6.182,0,0,0,8.679-8.679.237.237,0,0,0-.174-.09Z" transform="translate(-23.105 -22.836)" fill="#5a2b5e" stroke="#5a2b5e" stroke-width="0.25"/>
      <path id="Tracé_1760" data-name="Tracé 1760" d="M26.794,17.236a1.19,1.19,0,0,1-.847-.351l-3.653-3.653a1.2,1.2,0,0,1-.35-.922,1.19,1.19,0,0,1,.453-.865,7.111,7.111,0,0,1,8.8,0,1.2,1.2,0,0,1,.1,1.788l-3.653,3.653A1.189,1.189,0,0,1,26.794,17.236Zm0-6.363a6.163,6.163,0,0,0-3.811,1.32.236.236,0,0,0-.09.174.249.249,0,0,0,.073.193l3.653,3.653a.253.253,0,0,0,.349,0l3.653-3.653a.249.249,0,0,0,.073-.193.237.237,0,0,0-.09-.174A6.165,6.165,0,0,0,26.794,10.872Z" transform="translate(-19.83 -9.921)" fill="#5a2b5e" stroke="#5a2b5e" stroke-width="0.25"/>
      <path id="Tracé_1761" data-name="Tracé 1761" d="M17.65,41.567c-.037,0-.075,0-.113-.005a1.186,1.186,0,0,1-.872-.512,5.088,5.088,0,0,1,0-5.705,1.186,1.186,0,0,1,.872-.512,1.2,1.2,0,0,1,.962.347h0L20.67,37.35a1.2,1.2,0,0,1,0,1.694L18.5,41.215A1.2,1.2,0,0,1,17.65,41.567Zm0-5.789h-.024a.235.235,0,0,0-.175.1,4.131,4.131,0,0,0,0,4.632.235.235,0,0,0,.175.1.248.248,0,0,0,.2-.072L20,38.372a.248.248,0,0,0,0-.349l-2.171-2.171h0A.25.25,0,0,0,17.649,35.778Z" transform="translate(-15.791 -29.148)" fill="#d50e58" stroke="#d50e58" stroke-width="0.25"/>
      <path id="Tracé_1846" data-name="Tracé 1846" d="M2.152,6.863A26.167,26.167,0,0,1,4.608,9.5L2.152,12.148A4.5,4.5,0,0,1,.691,9.5,4.5,4.5,0,0,1,2.152,6.863Z" transform="translate(-0.04 -0.4)" fill="#d50e58"/>
    </g>
  </g>
</svg>
