<svg xmlns="http://www.w3.org/2000/svg" width="19.772" height="19.431" viewBox="0 0 19.772 19.431">
  <g id="Crédits" transform="matrix(-0.966, 0.259, -0.259, -0.966, 21.086, 15.793)">
    <path id="Tracé_1759" data-name="Tracé 1759" d="M32.219,39.86a7.591,7.591,0,0,1-4.7-1.624,1.282,1.282,0,0,1-.109-1.913l8.914-8.914a1.289,1.289,0,0,1,.987-.374,1.274,1.274,0,0,1,.926.484A7.635,7.635,0,0,1,32.219,39.86Z" transform="translate(-22.83 -22.542)" fill="#d50e58" stroke="#d50e58" stroke-width="0.25"/>
    <path id="Tracé_1760" data-name="Tracé 1760" d="M27.135,17.749a1.273,1.273,0,0,1-.907-.376l-3.91-3.91a1.287,1.287,0,0,1-.374-.987,1.274,1.274,0,0,1,.484-.926,7.61,7.61,0,0,1,9.413,0,1.282,1.282,0,0,1,.11,1.913l-3.91,3.91A1.273,1.273,0,0,1,27.135,17.749Z" transform="translate(-19.682 -9.921)" fill="#d50e58" stroke="#d50e58" stroke-width="0.25"/>
    <path id="Tracé_1761" data-name="Tracé 1761" d="M17.781,42.04c-.04,0-.08,0-.121-.006a1.269,1.269,0,0,1-.933-.548,5.445,5.445,0,0,1,0-6.106,1.269,1.269,0,0,1,.933-.548,1.283,1.283,0,0,1,1.029.371h0l2.323,2.323a1.283,1.283,0,0,1,0,1.813l-2.323,2.323A1.282,1.282,0,0,1,17.781,42.04Zm0-6.195h-.025a.251.251,0,0,0-.187.109,4.421,4.421,0,0,0,0,4.957.251.251,0,0,0,.187.109.266.266,0,0,0,.216-.077l2.323-2.323a.265.265,0,0,0,0-.374L17.97,35.923h0A.267.267,0,0,0,17.78,35.845Z" transform="translate(-15.791 -28.75)" fill="#d50e58" stroke="#d50e58" stroke-width="0.25"/>
    <path id="Tracé_1846" data-name="Tracé 1846" d="M2.254,6.863A28,28,0,0,1,4.883,9.69L2.254,12.519S.691,11.1.691,9.69,2.254,6.863,2.254,6.863Z" transform="translate(0.005 0.054)" fill="#d50e58" stroke="#d50e58" stroke-width="1"/>
  </g>
</svg>
