<svg xmlns="http://www.w3.org/2000/svg" width="20" height="20" viewBox="0 0 20 20">
  <g id="Comptes" transform="translate(-30 -233)">
    <rect id="Rectangle_1392" data-name="Rectangle 1392" width="20" height="20" transform="translate(30 233)" fill="#fff"/>
    <g id="Groupe_2149" data-name="Groupe 2149" transform="translate(-50.842 213.799)">
      <path id="Tracé_2903" data-name="Tracé 2903" d="M96.291,28.53h-10.9a1.822,1.822,0,0,0-1.816,1.817v4.541A1.821,1.821,0,0,0,85.392,36.7h10.9a1.822,1.822,0,0,0,1.817-1.816V30.347A1.823,1.823,0,0,0,96.291,28.53Zm.909,6.358a.911.911,0,0,1-.909.908h-10.9a.911.911,0,0,1-.908-.908V30.347a.911.911,0,0,1,.908-.909h10.9a.912.912,0,0,1,.909.909Z" fill="#5a2b5e" stroke="#5a2b5f" stroke-width="0.25"/>
      <path id="Tracé_2904" data-name="Tracé 2904" d="M87.588,31.023h.844a.4.4,0,0,0,0-.8H87.226a.379.379,0,0,0-.4.4.806.806,0,0,1-.8.8.38.38,0,0,0-.4.4v1.607a.379.379,0,0,0,.4.4.807.807,0,0,1,.8.8.378.378,0,0,0,.4.4h1.206a.4.4,0,0,0,0-.8h-.844a1.7,1.7,0,0,0-1.165-1.165v-.924A1.576,1.576,0,0,0,87.588,31.023Z" fill="#5a2b5e" stroke="#5a2b5f" stroke-width="0.25"/>
      <path id="Tracé_2905" data-name="Tracé 2905" d="M95.663,31.425a.806.806,0,0,1-.8-.8.38.38,0,0,0-.4-.4H93.252a.4.4,0,1,0,0,.8H94.1a1.7,1.7,0,0,0,1.165,1.165v.924A1.7,1.7,0,0,0,94.1,34.277h-.844a.4.4,0,1,0,0,.8h1.205a.38.38,0,0,0,.4-.4.807.807,0,0,1,.8-.8.378.378,0,0,0,.4-.4V31.867A.391.391,0,0,0,95.663,31.425Z" fill="#5a2b5e" stroke="#5a2b5f" stroke-width="0.25"/>
      <circle id="Ellipse_311" data-name="Ellipse 311" cx="1.836" cy="1.836" r="1.836" transform="translate(89.006 30.672)" fill="#d50e58"/>
      <path id="Tracé_2906" data-name="Tracé 2906" d="M90.275,23.682l-1.846-1.847a.462.462,0,0,0-.653,0L85.93,23.682a.461.461,0,0,0,.652.651l1.06-1.058V26.43a.461.461,0,0,0,.922,0V23.275l1.06,1.058a.469.469,0,0,0,.651,0,.459.459,0,0,0,0-.652Z" fill="#d50e58" stroke="#d50e58" stroke-width="0.25"/>
      <path id="Tracé_2907" data-name="Tracé 2907" d="M95.5,24.257a.461.461,0,0,0-.652,0l-1.06,1.057V22.161a.462.462,0,1,0-.923,0v3.153L91.8,24.257a.461.461,0,0,0-.653.651L93,26.755a.461.461,0,0,0,.652,0L95.5,24.908A.46.46,0,0,0,95.5,24.257Z" fill="#5a2b5e" stroke="#5a2b5f" stroke-width="0.25"/>
    </g>
  </g>
</svg>
