<svg xmlns="http://www.w3.org/2000/svg" width="25.989" height="22.523" viewBox="0 0 25.989 22.523">
  <path id="Tracé_5061" data-name="Tracé 5061" d="M5.438,14.292l-3.384-.027L6.683,9.527l-.027,3.519A1.254,1.254,0,0,1,5.438,14.292ZM15.427,24.9c1.029.081,2.247.352,2.572,1.11a1.232,1.232,0,0,1-.135,1.191.636.636,0,0,1-.569.325h0c-.189,0-.785,0-2.247-1.814h-.433a1.031,1.031,0,0,0-.352.027,16.1,16.1,0,0,0-5.035,1.624c-.108.19-.189.379-.3.541a2.5,2.5,0,0,1-.135.217c-.866,1.516-1.814,2.9-2.653,2.9a.76.76,0,0,1-.65-.352,1.164,1.164,0,0,1-.217-.839c.135-.839,1.083-1.6,1.922-2.166l.027-.027c.433-.3.92-.6,1.408-.866a31.774,31.774,0,0,0,1.733-5.279h-.244a2.057,2.057,0,0,1-2.057-2.057V13.182a2.057,2.057,0,0,1,2.057-2.057H20.246v-.244A1.416,1.416,0,0,0,18.811,9.5H7.468l-.027,3.546A2.051,2.051,0,0,1,5.411,15.1H2V30.643a1.416,1.416,0,0,0,1.435,1.381H20.219c.027-.7.027-5.685.054-10.612H13.126A33.9,33.9,0,0,0,15.427,24.9Zm-3.194-3.519H11.2A33.483,33.483,0,0,1,9.77,26.122l.081-.027-.027.054a17.7,17.7,0,0,1,4.359-1.272c.054,0,.135-.027.217-.027l-.027-.054H14.4A32,32,0,0,1,12.233,21.384Zm5.117,4.981c-.081-.189-.46-.406-1.11-.541a2.883,2.883,0,0,0,1.056.866A.51.51,0,0,0,17.35,26.366Zm-.027.325h0v0ZM6.088,29.885a.326.326,0,0,0,.054.217c.027.054.054.054.054.054.19,0,.65-.271,1.733-2.057a1.5,1.5,0,0,0-.217.162l-.027.027C6.683,28.937,6.142,29.506,6.088,29.885ZM18.676,15h-.325V17.27h.325a1.394,1.394,0,0,0,.569-.081.555.555,0,0,0,.271-.325,2.18,2.18,0,0,0,.108-.731,1.525,1.525,0,0,0-.217-.92A1.022,1.022,0,0,0,18.676,15Zm-4.169-.081h-.379v.92h.325a.782.782,0,0,0,.514-.135.386.386,0,0,0,.162-.325.448.448,0,0,0-.135-.325C14.913,14.941,14.751,14.914,14.507,14.914ZM27.989,13.4v5.739a1.386,1.386,0,0,1-1.381,1.381H10.392a1.386,1.386,0,0,1-1.381-1.381V13.4a1.386,1.386,0,0,1,1.381-1.381H26.635A1.363,1.363,0,0,1,27.989,13.4ZM16.375,15.347a1.207,1.207,0,0,0-.352-.948,1.54,1.54,0,0,0-1.056-.325H12.829v4.169h1.3v-1.57h.7A1.621,1.621,0,0,0,16,16.322,1.326,1.326,0,0,0,16.375,15.347Zm4.548.785a2.565,2.565,0,0,0-.108-.812,2.612,2.612,0,0,0-.325-.677,1.453,1.453,0,0,0-.569-.433,2.243,2.243,0,0,0-.92-.162H17.079v4.169H19a2.69,2.69,0,0,0,.758-.108,1.2,1.2,0,0,0,.569-.325,1.717,1.717,0,0,0,.433-.623A2.635,2.635,0,0,0,20.923,16.133Zm3.871-2.085H21.6v4.169h1.3V16.512h1.624v-.839H22.9v-.731h1.9Z" transform="translate(-2 -9.5)" fill="#fff"/>
</svg>
