<svg xmlns="http://www.w3.org/2000/svg" width="22.44" height="22.44" viewBox="0 0 22.44 22.44">
  <g id="noun_Search_1355726" transform="translate(-1.4 -1.4)">
    <path id="Tracé_2887" data-name="Tracé 2887" d="M35.864,32.6a3.364,3.364,0,1,0,3.364,3.364A3.368,3.368,0,0,0,35.864,32.6Z" transform="translate(-23.935 -24.012)" fill="#5a2b5e"/>
    <path id="Tracé_2888" data-name="Tracé 2888" d="M12.62,1.4A11.22,11.22,0,1,0,23.84,12.62,11.219,11.219,0,0,0,12.62,1.4Zm5.46,16.98a.979.979,0,0,1-.691.253h0a1.02,1.02,0,0,1-.691-.253l-2.12-2.12-.207.115a5.036,5.036,0,1,1,2.6-4.4,4.93,4.93,0,0,1-.829,2.765l-.138.23,2.1,2.1a1.026,1.026,0,0,1,.276.668A1.048,1.048,0,0,1,18.08,18.38Z" fill="#5a2b5e"/>
  </g>
</svg>
