<svg xmlns="http://www.w3.org/2000/svg" width="22.006" height="23.543" viewBox="0 0 22.006 23.543">
  <g id="Groupe_2071" data-name="Groupe 2071" transform="translate(-623.322 -708.859)">
    <path id="Tracé_2779" data-name="Tracé 2779" d="M624.434,713.988a4.024,4.024,0,0,1,8.048-.007l-.005,1.44c0,.3.236-.122.534-.114,0,0,.007.664.011.664a.546.546,0,0,0,.561-.543l0-1.439a5.129,5.129,0,0,0-10.258-.007l-.007,3.12a.543.543,0,0,0,.63.538l.011,0a.541.541,0,0,0,.464-.532Z" fill="#1d2c62"/>
    <path id="Tracé_2780" data-name="Tracé 2780" d="M645.008,720.466h-8.047l.012-2.613q-.556.074-1.106.172l-.011,2.475a2.868,2.868,0,0,0-2.447,2.836v9.221a2.87,2.87,0,0,0,2.87,2.87h9.573a2.87,2.87,0,0,0,2.87-2.87v-9.221a2.869,2.869,0,0,0-2.608-2.857m-3.739,9.783h-2.5l.391-1.808a1.525,1.525,0,1,1,1.654-.029C642.092,729.126,642.374,730.262,642.374,730.262Z" transform="translate(-3.393 -3.026)" fill="#1d2c62"/>
  </g>
</svg>
