<svg id="R_agence" xmlns="http://www.w3.org/2000/svg" width="19.477" height="24.995" viewBox="0 0 19.477 24.995">
  <g id="Groupe_1662" data-name="Groupe 1662">
    <path id="Tracé_1817" data-name="Tracé 1817" d="M9.705,0a9.774,9.774,0,0,1,9.772,9.705c0,5.717-6.315,10.9-9.772,15.289C6.315,20.607,0,15.422,0,9.705A9.76,9.76,0,0,1,9.705,0Zm0,4.986a4.753,4.753,0,1,1-4.72,4.72A4.752,4.752,0,0,1,9.705,4.986Z" fill="#d29e0e" fill-rule="evenodd"/>
  </g>
</svg>
