<svg xmlns="http://www.w3.org/2000/svg" width="24.743" height="24.743" viewBox="0 0 24.743 24.743">
  <path id="Tracé_1816" data-name="Tracé 1816" d="M12.371,0A12.371,12.371,0,1,0,24.743,12.371,12.372,12.372,0,0,0,12.371,0Zm1.68,18.436a1.766,1.766,0,0,1-1.68,1.853,1.766,1.766,0,0,1-1.68-1.853V12.371a1.768,1.768,0,0,1,1.68-1.856,1.768,1.768,0,0,1,1.68,1.856Zm0-11.894a1.68,1.68,0,0,1-3.36,0V6.134a1.68,1.68,0,1,1,3.36,0Z" fill="#d29e0e"/>
</svg>
