<svg id="Comptes" xmlns="http://www.w3.org/2000/svg" width="16.001" height="16" viewBox="0 0 16.001 16">
  <path id="Tracé_1755" data-name="Tracé 1755" d="M10.8,11.6A4.8,4.8,0,1,0,6,6.8,4.8,4.8,0,0,0,10.8,11.6Zm0-8A3.2,3.2,0,1,1,7.6,6.8,3.2,3.2,0,0,1,10.8,3.6Z" transform="translate(-2.807 -2)" fill="#d19f2a"/>
  <path id="Tracé_1756" data-name="Tracé 1756" d="M17.842,19.52l-.64-.888A6.614,6.614,0,0,0,11.906,16H7.978a6.552,6.552,0,0,0-5.9,3.64.8.8,0,0,0,1.432.712A4.959,4.959,0,0,1,7.978,17.6h3.928a5.007,5.007,0,0,1,4,1.992l.664.888a.8.8,0,0,0,1.28-.96Z" transform="translate(-2.008 -4.8)" fill="#d19f2a"/>
</svg>
