<svg xmlns="http://www.w3.org/2000/svg" width="20" height="20" viewBox="0 0 20 20">
  <g id="Transferts" transform="translate(-30 -550)">
    <path id="Tracé_2711" data-name="Tracé 2711" d="M0,0H20V20H0Z" transform="translate(30 550)" fill="#fff"/>
    <g id="Groupe_2011" data-name="Groupe 2011" transform="translate(-21.67 501.279)">
      <path id="Tracé_2708" data-name="Tracé 2708" d="M59.268,64.33A.691.691,0,0,1,59,64.277a.458.458,0,0,1-.267-.664l6.8-11.195a.662.662,0,0,1,.8-.22.458.458,0,0,1,.266.664L59.8,64.057A.622.622,0,0,1,59.268,64.33Z" transform="translate(-0.802)" fill="#d19f2a"/>
      <path id="Tracé_2709" data-name="Tracé 2709" d="M58.938,56.681a2.268,2.268,0,1,1,2.268-2.268A2.27,2.27,0,0,1,58.938,56.681Zm0-3.338a1.07,1.07,0,1,0,1.07,1.07A1.071,1.071,0,0,0,58.938,53.344Z" transform="translate(1 0)" fill="#d19f2a"/>
      <path id="Tracé_2710" data-name="Tracé 2710" d="M68.711,73.716a2.268,2.268,0,1,1,2.268-2.268A2.271,2.271,0,0,1,68.711,73.716Zm0-3.338a1.07,1.07,0,1,0,1.071,1.07A1.071,1.071,0,0,0,68.711,70.378Z" transform="translate(-4.921 -9.386)" fill="#d19f2a"/>
    </g>
  </g>
</svg>
