<svg xmlns="http://www.w3.org/2000/svg" width="20" height="20" viewBox="0 0 20 20">
  <g id="Informations" transform="translate(-30 -694)">
    <rect id="Rectangle_1403" data-name="Rectangle 1403" width="20" height="20" transform="translate(30 694)" fill="#fff"/>
    <g id="Groupe_1999" data-name="Groupe 1999">
      <g id="Ellipse_307" data-name="Ellipse 307" transform="translate(32 696.119)" fill="none" stroke="#d19f2a" stroke-width="1.5">
        <circle cx="7.941" cy="7.941" r="7.941" stroke="none"/>
        <circle cx="7.941" cy="7.941" r="7.191" fill="none"/>
      </g>
      <text id="i" transform="translate(38.941 707.5)" fill="#d19f2a" stroke="#d19f2a" stroke-width="0.75" font-size="10" font-family="CenturyGothic-Bold, Century Gothic" font-weight="700"><tspan x="0" y="0">i</tspan></text>
    </g>
  </g>
</svg>
