<svg xmlns="http://www.w3.org/2000/svg" width="32.92" height="32.919" viewBox="0 0 32.92 32.919">
  <g id="Groupe_5222" data-name="Groupe 5222" transform="translate(-47.331 -119.477)">
    <path id="Tracé_7266" data-name="Tracé 7266" d="M63.791,119.852a16.084,16.084,0,1,0,16.085,16.085A16.1,16.1,0,0,0,63.791,119.852ZM53.684,145.18a13.7,13.7,0,0,1,10.107-22.958l.175,0a13.727,13.727,0,0,1,6.51,1.752l.178.1-.128.16-16.7,21.094Zm10.107,4.467a13.609,13.609,0,0,1-8.049-2.626l-.147-.108.113-.142L72.6,125.445l.137.119a13.7,13.7,0,0,1-8.943,24.083Z" fill="#d29e0e" stroke="#d29e0e" stroke-width="0.75"/>
  </g>
</svg>
