<svg xmlns="http://www.w3.org/2000/svg" width="22.952" height="22.557" viewBox="0 0 22.952 22.557">
  <g id="picto_calendrier" transform="translate(0.107)">
    <rect id="Rectangle_1361" data-name="Rectangle 1361" width="22" height="22" transform="translate(-0.107 0.557)" fill="#fff"/>
    <g id="Groupe_1671" data-name="Groupe 1671" transform="translate(2.269)">
      <path id="Tracé_1826" data-name="Tracé 1826" d="M14.592,3.087H12.961V2.544a.544.544,0,0,0-1.087,0v.544H5.349V2.544a.544.544,0,1,0-1.087,0v.544H2.631A1.631,1.631,0,0,0,1,4.718v10.33a1.631,1.631,0,0,0,1.631,1.631H14.592a1.631,1.631,0,0,0,1.631-1.631V4.718A1.631,1.631,0,0,0,14.592,3.087ZM2.631,4.175H4.262v.544a.544.544,0,1,0,1.087,0V4.175h6.524v.544a.544.544,0,0,0,1.087,0V4.175h1.631a.544.544,0,0,1,.544.544V6.893H2.087V4.718A.544.544,0,0,1,2.631,4.175ZM14.592,15.592H2.631a.544.544,0,0,1-.544-.544V7.98H15.136v7.068A.544.544,0,0,1,14.592,15.592Z" transform="translate(-1 1.262)" fill="#D29E0E" stroke="#D29E0E" stroke-width="0.5"/>
      <path id="Tracé_1827" data-name="Tracé 1827" d="M19.592,8.023h-1.72a3.118,3.118,0,0,1,.1,1.087h1.616a.544.544,0,0,1,.544.544v2.175c.01.512,0,.708,0,1.087v7.068a.544.544,0,0,1-.544.544H7.631a.544.544,0,0,1-.544-.544V18.76A2.721,2.721,0,0,1,6,19v.986a1.631,1.631,0,0,0,1.631,1.631H19.592a1.631,1.631,0,0,0,1.631-1.631V9.654A1.631,1.631,0,0,0,19.592,8.023Z" transform="translate(-3.282 -1.486)" fill="#D29E0E" stroke="#D29E0E" stroke-width="0.5"/>
      <path id="Tracé_1828" data-name="Tracé 1828" d="M38.845-4" transform="translate(-18.27 4)" fill="#D29E0E" stroke="#D29E0E" stroke-width="0.5"/>
      <path id="Tracé_1829" data-name="Tracé 1829" d="M7.631,15H6.544a.544.544,0,1,0,0,1.087H7.631a.544.544,0,0,0,0-1.087Z" transform="translate(-3.282 -4.67)" fill="#D29E0E" stroke="#D29E0E" stroke-width="0.5"/>
      <path id="Tracé_1830" data-name="Tracé 1830" d="M14.631,15H13.544a.544.544,0,1,0,0,1.087h1.087a.544.544,0,0,0,0-1.087Z" transform="translate(-6.476 -4.67)" fill="#D29E0E" stroke="#D29E0E" stroke-width="0.5"/>
      <path id="Tracé_1831" data-name="Tracé 1831" d="M21.631,15H20.544a.544.544,0,1,0,0,1.087h1.087a.544.544,0,1,0,0-1.087Z" transform="translate(-9.67 -4.67)" fill="#D29E0E" stroke="#D29E0E" stroke-width="0.5"/>
      <path id="Tracé_1832" data-name="Tracé 1832" d="M7.631,19H6.544a.544.544,0,1,0,0,1.087H7.631a.544.544,0,1,0,0-1.087Z" transform="translate(-3.282 -6.495)" fill="#D29E0E" stroke="#D29E0E" stroke-width="0.5"/>
      <path id="Tracé_1833" data-name="Tracé 1833" d="M14.631,19H13.544a.544.544,0,1,0,0,1.087h1.087a.544.544,0,1,0,0-1.087Z" transform="translate(-6.476 -6.495)" fill="#D29E0E" stroke="#D29E0E" stroke-width="0.5"/>
      <path id="Tracé_1834" data-name="Tracé 1834" d="M21.631,19H20.544a.544.544,0,1,0,0,1.087h1.087a.544.544,0,1,0,0-1.087Z" transform="translate(-9.67 -6.495)" fill="#D29E0E" stroke="#D29E0E" stroke-width="0.5"/>
      <path id="Tracé_1835" data-name="Tracé 1835" d="M7.631,23H6.544a.544.544,0,1,0,0,1.087H7.631a.544.544,0,1,0,0-1.087Z" transform="translate(-3.282 -8.321)" fill="#D29E0E" stroke="#D29E0E" stroke-width="0.5"/>
      <path id="Tracé_1836" data-name="Tracé 1836" d="M14.631,23H13.544a.544.544,0,1,0,0,1.087h1.087a.544.544,0,1,0,0-1.087Z" transform="translate(-6.476 -8.321)" fill="#D29E0E" stroke="#D29E0E" stroke-width="0.5"/>
    </g>
  </g>
</svg>
