<svg xmlns="http://www.w3.org/2000/svg" width="47" height="47" viewBox="0 0 47 47">
  <g id="Groupe_5359" data-name="Groupe 5359" transform="translate(-119.388 -52.829)">
    <path id="Tracé_3278" data-name="Tracé 3278" d="M162.953,56.14a23.5,23.5,0,1,0,23.5,23.5A23.521,23.521,0,0,0,162.953,56.14Z" transform="translate(-20.065 -3.311)" fill="#d19f2a"/>
    <ellipse id="Ellipse_309" data-name="Ellipse 309" cx="2.877" cy="2.877" rx="2.877" ry="2.877" transform="translate(139.846 76.881)" fill="#fff"/>
    <path id="Tracé_2867" data-name="Tracé 2867" d="M7.149,18.448h5.732A2.156,2.156,0,0,0,15.03,16.3v-.716A3.582,3.582,0,0,0,11.448,12H8.582A3.582,3.582,0,0,0,5,15.582V16.3A2.156,2.156,0,0,0,7.149,18.448Z" transform="translate(132.873 71.329)" fill="#fff"/>
    <ellipse id="Ellipse_309-2" data-name="Ellipse 309" cx="2.877" cy="2.877" rx="2.877" ry="2.877" transform="translate(129.816 62.881)" fill="#fff"/>
    <path id="Tracé_2867-2" data-name="Tracé 2867" d="M7.149,18.448h5.732A2.156,2.156,0,0,0,15.03,16.3v-.716A3.582,3.582,0,0,0,11.448,12H8.582A3.582,3.582,0,0,0,5,15.582V16.3A2.156,2.156,0,0,0,7.149,18.448Z" transform="translate(122.843 57.329)" fill="#fff"/>
    <ellipse id="Ellipse_309-3" data-name="Ellipse 309" cx="2.877" cy="2.877" rx="2.877" ry="2.877" transform="translate(149.877 62.881)" fill="#fff"/>
    <path id="Tracé_2867-3" data-name="Tracé 2867" d="M7.149,18.448h5.732A2.156,2.156,0,0,0,15.03,16.3v-.716A3.582,3.582,0,0,0,11.448,12H8.582A3.582,3.582,0,0,0,5,15.582V16.3A2.156,2.156,0,0,0,7.149,18.448Z" transform="translate(142.903 57.329)" fill="#fff"/>
  </g>
</svg>
